{
  "assignment": {
    "JSON Questions": {
      "questions":[
        {"1": "XML is good for if there is a lot going on with files and something powerful is needed. JSON is better for when you just need a simple way to save some data."},
        {"2": "It is a joke about JavaScript being overly complicated and having lots of extra features. However if you keep things simple javascript is easy to use."},
        {"3": "It stands for JavaScript Object Notation and was made by Douglas Crockford"},
        {"4": "Lists and dictionaries."},
        {"5": "JSON is the worlds best loved data interchage format."},
        {"6": "2001 he says that the creation of JSON was just him naming and describing something that already existed in nature."},
        {"7": "AJAX is a style of web development. Data is sent and received between a web browser and a web server in the background without changing the HTML webpage. JSON is used and was created to facilitate this communication."},
        {"8": "He bought JSON.org and said it was a standard."},
        {"9": "With XML a request is sent to the server for data and then the client has to do further processing of this data. JSON is structed so that the second step of data processing is unncessicary."}
      ],
    "score":"100"
    },
    "Chapter 6 Notes": {
      "questions":[
        {"1": "Conditional, sequential, and store and reuse."},
        {"2": "It counts down from 5 and then prints blastoff."},
        {"3": "Iteration"},
        {"4": "An infinite loop. In the example given you would not want an infinite loop although sometimes you might."},
        {"5": "break"},
        {"6": "Continue it restarts the loop."},
        {"7": "Indefinite loop"},
        {"8": "A definite or for loop."},
        {"9": "Loop idioms are ways of constructing loops. Some examples are finding the largest number, counting the number of items in a set, and finding the smallest value."}
      ],
      "score":"90"
    }
  }
}
