30
30
zzzzzzzzzzzzzzzzzzzzzzzzzzzzzz
zb                      z   bz
z                       z    z
z       zzz             zzzz z
z                            z
z                            z
z        z           zzzz    z
z        z            z      z
z    zzzzzzzzzzzzzz   z      z
z    z            z   z      z
z    z b        b z   z      z
z zzzz            z   z      z
z    z            z   z      z
z    z    zzzzz   z   z      z
z    z    z   z   z   z      z
z    z    z p z   z   z      z
z    z    z       z   z      z
z    z    z       z   z      z
z    z    z       z   zz     z
z    z    zzzzzzzzz   z      z
z    z                z      z
z    z b           b  z      z
z    z                z      z
z    zzzzzzzzzzzzzzzzzz      z
z                      z     z
z                      z     z
z   zzz    zzz         z     z
z                            z
zb                          bz
zzzzzzzzzzzzzzzzzzzzzzzzzzzzzz
